,Rank
clm_bioclim.var_chelsa.1_m_1km_s0..0cm_1979..2013_v1.0.tif,1
clm_skin.temp_era5.copernicus_mn_1km_0..0cm_11.01..11.30_avg_5yrs_eumap_epsg3035_v0.1.tif,1
clm_skin.temp_era5.copernicus_mn_1km_0..0cm_11.01..11.30_mean_eumap_epsg3035_v0.1.tif,1
clm_skin.temp_era5.copernicus_mn_1km_0..0cm_12.01..12.31_avg_5yrs_eumap_epsg3035_v0.1.tif,1
clm_skin.temp_era5.copernicus_mn_1km_0..0cm_12.01..12.31_mean_eumap_epsg3035_v0.1.tif,1
clm_skin.temp_era5.copernicus_mn_1km_0..0cm_12.01..12.31_std_eumap_epsg3035_v0.1.tif,1
clm_skin.temp_era5.copernicus_mx_1km_0..0cm_01.01..01.31_avg_5yrs_eumap_epsg3035_v0.1.tif,1
clm_skin.temp_era5.copernicus_mx_1km_0..0cm_01.01..01.31_std_eumap_epsg3035_v0.1.tif,1
clm_skin.temp_era5.copernicus_mx_1km_0..0cm_02.01..02.28_mean_eumap_epsg3035_v0.1.tif,1
clm_skin.temp_era5.copernicus_mn_1km_0..0cm_10.01..10.31_std_eumap_epsg3035_v0.1.tif,1
clm_skin.temp_era5.copernicus_mx_1km_0..0cm_02.01..02.28_std_eumap_epsg3035_v0.1.tif,1
clm_skin.temp_era5.copernicus_mx_1km_0..0cm_03.01..03.31_mean_eumap_epsg3035_v0.1.tif,1
clm_skin.temp_era5.copernicus_mx_1km_0..0cm_04.01..04.30_avg_5yrs_eumap_epsg3035_v0.1.tif,1
clm_skin.temp_era5.copernicus_mx_1km_0..0cm_04.01..04.30_mean_eumap_epsg3035_v0.1.tif,1
clm_skin.temp_era5.copernicus_mx_1km_0..0cm_05.01..05.31_avg_5yrs_eumap_epsg3035_v0.1.tif,1
clm_skin.temp_era5.copernicus_mx_1km_0..0cm_05.01..05.31_mean_eumap_epsg3035_v0.1.tif,1
clm_skin.temp_era5.copernicus_mx_1km_0..0cm_05.01..05.31_std_eumap_epsg3035_v0.1.tif,1
clm_skin.temp_era5.copernicus_mx_1km_0..0cm_06.01..06.30_avg_5yrs_eumap_epsg3035_v0.1.tif,1
clm_skin.temp_era5.copernicus_mx_1km_0..0cm_06.01..06.30_mean_eumap_epsg3035_v0.1.tif,1
clm_skin.temp_era5.copernicus_mx_1km_0..0cm_03.01..03.31_avg_5yrs_eumap_epsg3035_v0.1.tif,1
clm_skin.temp_era5.copernicus_mx_1km_0..0cm_06.01..06.30_std_eumap_epsg3035_v0.1.tif,1
clm_skin.temp_era5.copernicus_mn_1km_0..0cm_10.01..10.31_mean_eumap_epsg3035_v0.1.tif,1
clm_skin.temp_era5.copernicus_mn_1km_0..0cm_09.01..09.30_std_eumap_epsg3035_v0.1.tif,1
clm_skin.temp_era5.copernicus_mn_1km_0..0cm_02.01..02.28_mean_eumap_epsg3035_v0.1.tif,1
clm_skin.temp_era5.copernicus_mn_1km_0..0cm_02.01..02.28_std_eumap_epsg3035_v0.1.tif,1
clm_skin.temp_era5.copernicus_mn_1km_0..0cm_03.01..03.31_avg_5yrs_eumap_epsg3035_v0.1.tif,1
clm_skin.temp_era5.copernicus_mn_1km_0..0cm_03.01..03.31_mean_eumap_epsg3035_v0.1.tif,1
clm_skin.temp_era5.copernicus_mn_1km_0..0cm_03.01..03.31_std_eumap_epsg3035_v0.1.tif,1
clm_skin.temp_era5.copernicus_mn_1km_0..0cm_04.01..04.30_avg_5yrs_eumap_epsg3035_v0.1.tif,1
clm_skin.temp_era5.copernicus_mn_1km_0..0cm_04.01..04.30_std_eumap_epsg3035_v0.1.tif,1
clm_skin.temp_era5.copernicus_mn_1km_0..0cm_05.01..05.31_avg_5yrs_eumap_epsg3035_v0.1.tif,1
clm_skin.temp_era5.copernicus_mn_1km_0..0cm_10.01..10.31_avg_5yrs_eumap_epsg3035_v0.1.tif,1
clm_skin.temp_era5.copernicus_mn_1km_0..0cm_05.01..05.31_mean_eumap_epsg3035_v0.1.tif,1
clm_skin.temp_era5.copernicus_mn_1km_0..0cm_06.01..06.30_mean_eumap_epsg3035_v0.1.tif,1
clm_skin.temp_era5.copernicus_mn_1km_0..0cm_06.01..06.30_std_eumap_epsg3035_v0.1.tif,1
clm_skin.temp_era5.copernicus_mn_1km_0..0cm_07.01..07.31_avg_5yrs_eumap_epsg3035_v0.1.tif,1
clm_skin.temp_era5.copernicus_mn_1km_0..0cm_07.01..07.31_mean_eumap_epsg3035_v0.1.tif,1
clm_skin.temp_era5.copernicus_mn_1km_0..0cm_08.01..08.31_avg_5yrs_eumap_epsg3035_v0.1.tif,1
clm_skin.temp_era5.copernicus_mn_1km_0..0cm_08.01..08.31_mean_eumap_epsg3035_v0.1.tif,1
clm_skin.temp_era5.copernicus_mn_1km_0..0cm_09.01..09.30_avg_5yrs_eumap_epsg3035_v0.1.tif,1
clm_skin.temp_era5.copernicus_mn_1km_0..0cm_09.01..09.30_mean_eumap_epsg3035_v0.1.tif,1
clm_skin.temp_era5.copernicus_mn_1km_0..0cm_06.01..06.30_avg_5yrs_eumap_epsg3035_v0.1.tif,1
clm_skin.temp_era5.copernicus_mx_1km_0..0cm_07.01..07.31_avg_5yrs_eumap_epsg3035_v0.1.tif,1
clm_skin.temp_era5.copernicus_mx_1km_0..0cm_07.01..07.31_mean_eumap_epsg3035_v0.1.tif,1
clm_skin.temp_era5.copernicus_mx_1km_0..0cm_08.01..08.31_avg_5yrs_eumap_epsg3035_v0.1.tif,1
clm_wind.speed_terraclimate.dec_m_5km_s0..0cm_1998..2018_v1.tif,1
clm_wind.speed_terraclimate.feb_m_5km_s0..0cm_1998..2018_v1.tif,1
clm_wind.speed_terraclimate.jan_m_5km_s0..0cm_1998..2018_v1.tif,1
clm_wind.speed_terraclimate.jul_m_5km_s0..0cm_1998..2018_v1.tif,1
clm_wind.speed_terraclimate.jun_m_5km_s0..0cm_1998..2018_v1.tif,1
clm_wind.speed_terraclimate.mar_m_5km_s0..0cm_1998..2018_v1.tif,1
clm_wind.speed_terraclimate.may_m_5km_s0..0cm_1998..2018_v1.tif,1
clm_wind.speed_terraclimate.nov_m_5km_s0..0cm_1998..2018_v1.tif,1
clm_wind.speed_terraclimate.aug_m_5km_s0..0cm_1998..2018_v1.tif,1
clm_wind.speed_terraclimate.oct_m_5km_s0..0cm_1998..2018_v1.tif,1
dtm_elev.lowestmode_gedi.eml_m_30m_0..0cm_2000..2018_eumap_epsg3035_v0.2.tif,1
dtm_floodmap.500y_jrc.hazardmapping_m_1km_s0..0cm_1500..2016_v1.0.tif,1
dtm_hillshade.a315_gedi.eml_m_30m_0..0cm_2000..2018_eumap_epsg3035_v0.2.tif,1
dtm_openn_gedi.saga.gis_m_30m_0..0cm_2000..2018_eumap_epsg3035_v0.2.tif,1
dtm_openp_gedi.saga.gis_m_30m_0..0cm_2000..2018_eumap_epsg3035_v0.2.tif,1
dtm_slope.percent_gedi.eml_m_30m_0..0cm_2000..2018_eumap_epsg3035_v0.2.tif,1
dtm_water.table.depth_deltares_m_1km_b0..150m_2016_v1.0.tif,1
hyd_height.above.neighbour_merit.hydro_m_250m_b0..0cm_2017_v1.0.tif,1
clm_wind.speed_terraclimate.sep_m_5km_s0..0cm_1998..2018_v1.tif,1
clm_wind.speed_terraclimate.apr_m_5km_s0..0cm_1998..2018_v1.tif,1
clm_water.vapor_nasa.eo.sep_m_1km_s0..0cm_2000..2017_v1.0.tif,1
clm_water.vapor_nasa.eo.oct_m_1km_s0..0cm_2000..2017_v1.0.tif,1
clm_skin.temp_era5.copernicus_mx_1km_0..0cm_08.01..08.31_mean_eumap_epsg3035_v0.1.tif,1
clm_skin.temp_era5.copernicus_mx_1km_0..0cm_09.01..09.30_avg_5yrs_eumap_epsg3035_v0.1.tif,1
clm_skin.temp_era5.copernicus_mx_1km_0..0cm_09.01..09.30_mean_eumap_epsg3035_v0.1.tif,1
clm_skin.temp_era5.copernicus_mx_1km_0..0cm_09.01..09.30_std_eumap_epsg3035_v0.1.tif,1
clm_skin.temp_era5.copernicus_mx_1km_0..0cm_10.01..10.31_mean_eumap_epsg3035_v0.1.tif,1
clm_skin.temp_era5.copernicus_mx_1km_0..0cm_10.01..10.31_std_eumap_epsg3035_v0.1.tif,1
clm_skin.temp_era5.copernicus_mx_1km_0..0cm_11.01..11.30_avg_5yrs_eumap_epsg3035_v0.1.tif,1
clm_skin.temp_era5.copernicus_mx_1km_0..0cm_11.01..11.30_mean_eumap_epsg3035_v0.1.tif,1
clm_skin.temp_era5.copernicus_mx_1km_0..0cm_11.01..11.30_std_eumap_epsg3035_v0.1.tif,1
clm_water.vapor_nasa.eo.apr_m_1km_s0..0cm_2000..2017_v1.0.tif,1
clm_water.vapor_nasa.eo.aug_m_1km_s0..0cm_2000..2017_v1.0.tif,1
clm_water.vapor_nasa.eo.dec_m_1km_s0..0cm_2000..2017_v1.0.tif,1
clm_water.vapor_nasa.eo.feb_m_1km_s0..0cm_2000..2017_v1.0.tif,1
clm_water.vapor_nasa.eo.jan_m_1km_s0..0cm_2000..2017_v1.0.tif,1
clm_water.vapor_nasa.eo.jul_m_1km_s0..0cm_2000..2017_v1.0.tif,1
clm_water.vapor_nasa.eo.jun_m_1km_s0..0cm_2000..2017_v1.0.tif,1
clm_water.vapor_nasa.eo.mar_m_1km_s0..0cm_2000..2017_v1.0.tif,1
clm_water.vapor_nasa.eo.may_m_1km_s0..0cm_2000..2017_v1.0.tif,1
clm_water.vapor_nasa.eo.nov_m_1km_s0..0cm_2000..2017_v1.0.tif,1
clm_skin.temp_era5.copernicus_mn_1km_0..0cm_02.01..02.28_avg_5yrs_eumap_epsg3035_v0.1.tif,1
clm_skin.temp_era5.copernicus_mn_1km_0..0cm_01.01..01.31_std_eumap_epsg3035_v0.1.tif,1
clm_skin.temp_era5.copernicus_mx_1km_0..0cm_12.01..12.31_mean_eumap_epsg3035_v0.1.tif,1
clm_skin.temp_era5.copernicus_av_1km_0..0cm_01.01..01.31_avg_5yrs_eumap_epsg3035_v0.1.tif,1
clm_prec_era5.copernicus_sum_1km_200..200cm_09.01..09.30_avg_5yrs_eumap_epsg3035_v0.1.tif,1
clm_bioclim.var_chelsa.4_m_1km_s0..0cm_1979..2013_v1.0.tif,1
clm_bioclim.var_chelsa.3_m_1km_s0..0cm_1979..2013_v1.0.tif,1
clm_bioclim.var_chelsa.2_m_1km_s0..0cm_1979..2013_v1.0.tif,1
clm_bioclim.var_chelsa.17_m_1km_s0..0cm_1979..2013_v1.0.tif,1
clm_prec_era5.copernicus_sum_1km_200..200cm_10.01..10.31_avg_5yrs_eumap_epsg3035_v0.1.tif,1
clm_prec_era5.copernicus_sum_1km_200..200cm_10.01..10.31_std_eumap_epsg3035_v0.1.tif,1
clm_prec_era5.copernicus_sum_1km_200..200cm_08.01..08.31_sum_eumap_epsg3035_v0.1.tif,1
clm_prec_era5.copernicus_sum_1km_200..200cm_10.01..10.31_sum_eumap_epsg3035_v0.1.tif,1
clm_prec_era5.copernicus_sum_1km_200..200cm_11.01..11.30_std_eumap_epsg3035_v0.1.tif,1
clm_prec_era5.copernicus_sum_1km_200..200cm_11.01..11.30_sum_eumap_epsg3035_v0.1.tif,1
clm_prec_era5.copernicus_sum_1km_200..200cm_12.01..12.31_avg_5yrs_eumap_epsg3035_v0.1.tif,1
clm_bioclim.var_chelsa.16_m_1km_s0..0cm_1979..2013_v1.0.tif,1
clm_prec_era5.copernicus_sum_1km_200..200cm_12.01..12.31_sum_eumap_epsg3035_v0.1.tif,1
clm_prec_era5.copernicus_sum_1km_200..200cm_01.01..01.31_avg_5yrs_eumap_epsg3035_v0.1.tif,1
clm_bioclim.var_chelsa.14_m_1km_s0..0cm_1979..2013_v1.0.tif,1
clm_prec_era5.copernicus_sum_1km_200..200cm_11.01..11.30_avg_5yrs_eumap_epsg3035_v0.1.tif,1
clm_prec_era5.copernicus_sum_1km_200..200cm_08.01..08.31_avg_5yrs_eumap_epsg3035_v0.1.tif,1
clm_prec_era5.copernicus_sum_1km_200..200cm_07.01..07.31_sum_eumap_epsg3035_v0.1.tif,1
clm_prec_era5.copernicus_sum_1km_200..200cm_07.01..07.31_avg_5yrs_eumap_epsg3035_v0.1.tif,1
clm_prec_era5.copernicus_sum_1km_200..200cm_01.01..01.31_sum_eumap_epsg3035_v0.1.tif,1
clm_prec_era5.copernicus_sum_1km_200..200cm_02.01..02.28_avg_5yrs_eumap_epsg3035_v0.1.tif,1
clm_prec_era5.copernicus_sum_1km_200..200cm_02.01..02.28_std_eumap_epsg3035_v0.1.tif,1
clm_prec_era5.copernicus_sum_1km_200..200cm_02.01..02.28_sum_eumap_epsg3035_v0.1.tif,1
clm_prec_era5.copernicus_sum_1km_200..200cm_03.01..03.31_std_eumap_epsg3035_v0.1.tif,1
clm_prec_era5.copernicus_sum_1km_200..200cm_03.01..03.31_sum_eumap_epsg3035_v0.1.tif,1
clm_prec_era5.copernicus_sum_1km_200..200cm_04.01..04.30_avg_5yrs_eumap_epsg3035_v0.1.tif,1
clm_prec_era5.copernicus_sum_1km_200..200cm_04.01..04.30_std_eumap_epsg3035_v0.1.tif,1
clm_prec_era5.copernicus_sum_1km_200..200cm_04.01..04.30_sum_eumap_epsg3035_v0.1.tif,1
clm_prec_era5.copernicus_sum_1km_200..200cm_05.01..05.31_avg_5yrs_eumap_epsg3035_v0.1.tif,1
clm_diffuse.irradiation_solar.atlas.kwhm2.100_m_1km_s0..0cm_2016_v1.tif,1
clm_prec_era5.copernicus_sum_1km_200..200cm_05.01..05.31_sum_eumap_epsg3035_v0.1.tif,1
clm_prec_era5.copernicus_sum_1km_200..200cm_06.01..06.30_avg_5yrs_eumap_epsg3035_v0.1.tif,1
clm_bioclim.var_chelsa.7_m_1km_s0..0cm_1979..2013_v1.0.tif,1
clm_bioclim.var_chelsa.6_m_1km_s0..0cm_1979..2013_v1.0.tif,1
clm_bioclim.var_chelsa.5_m_1km_s0..0cm_1979..2013_v1.0.tif,1
clm_prec_era5.copernicus_sum_1km_200..200cm_06.01..06.30_sum_eumap_epsg3035_v0.1.tif,1
clm_skin.temp_era5.copernicus_av_1km_0..0cm_01.01..01.31_std_eumap_epsg3035_v0.1.tif,1
clm_skin.temp_era5.copernicus_av_1km_0..0cm_02.01..02.28_avg_5yrs_eumap_epsg3035_v0.1.tif,1
clm_direct.irradiation_solar.atlas.kwhm2.10_m_1km_s0..0cm_2016_v1.tif,1
clm_bioclim.var_chelsa.12_m_1km_s0..0cm_1979..2013_v1.0.tif,1
clm_skin.temp_era5.copernicus_av_1km_0..0cm_09.01..09.30_mean_eumap_epsg3035_v0.1.tif,1
clm_skin.temp_era5.copernicus_av_1km_0..0cm_10.01..10.31_mean_eumap_epsg3035_v0.1.tif,1
clm_skin.temp_era5.copernicus_av_1km_0..0cm_09.01..09.30_avg_5yrs_eumap_epsg3035_v0.1.tif,1
clm_bioclim.var_chelsa.10_m_1km_s0..0cm_1979..2013_v1.0.tif,1
clm_skin.temp_era5.copernicus_av_1km_0..0cm_08.01..08.31_mean_eumap_epsg3035_v0.1.tif,1
clm_skin.temp_era5.copernicus_av_1km_0..0cm_10.01..10.31_std_eumap_epsg3035_v0.1.tif,1
clm_skin.temp_era5.copernicus_av_1km_0..0cm_08.01..08.31_avg_5yrs_eumap_epsg3035_v0.1.tif,1
clm_skin.temp_era5.copernicus_av_1km_0..0cm_07.01..07.31_std_eumap_epsg3035_v0.1.tif,1
clm_skin.temp_era5.copernicus_av_1km_0..0cm_11.01..11.30_avg_5yrs_eumap_epsg3035_v0.1.tif,1
clm_skin.temp_era5.copernicus_av_1km_0..0cm_02.01..02.28_mean_eumap_epsg3035_v0.1.tif,1
clm_skin.temp_era5.copernicus_av_1km_0..0cm_07.01..07.31_mean_eumap_epsg3035_v0.1.tif,1
clm_skin.temp_era5.copernicus_av_1km_0..0cm_11.01..11.30_mean_eumap_epsg3035_v0.1.tif,1
clm_skin.temp_era5.copernicus_av_1km_0..0cm_07.01..07.31_avg_5yrs_eumap_epsg3035_v0.1.tif,1
clm_skin.temp_era5.copernicus_mn_1km_0..0cm_01.01..01.31_avg_5yrs_eumap_epsg3035_v0.1.tif,1
clm_bioclim.var_chelsa.11_m_1km_s0..0cm_1979..2013_v1.0.tif,1
clm_skin.temp_era5.copernicus_av_1km_0..0cm_10.01..10.31_avg_5yrs_eumap_epsg3035_v0.1.tif,1
clm_skin.temp_era5.copernicus_av_1km_0..0cm_06.01..06.30_avg_5yrs_eumap_epsg3035_v0.1.tif,1
clm_skin.temp_era5.copernicus_av_1km_0..0cm_02.01..02.28_std_eumap_epsg3035_v0.1.tif,1
clm_skin.temp_era5.copernicus_av_1km_0..0cm_12.01..12.31_std_eumap_epsg3035_v0.1.tif,1
clm_skin.temp_era5.copernicus_av_1km_0..0cm_03.01..03.31_avg_5yrs_eumap_epsg3035_v0.1.tif,1
clm_skin.temp_era5.copernicus_av_1km_0..0cm_03.01..03.31_mean_eumap_epsg3035_v0.1.tif,1
clm_skin.temp_era5.copernicus_av_1km_0..0cm_12.01..12.31_mean_eumap_epsg3035_v0.1.tif,1
clm_skin.temp_era5.copernicus_av_1km_0..0cm_03.01..03.31_std_eumap_epsg3035_v0.1.tif,1
clm_skin.temp_era5.copernicus_av_1km_0..0cm_12.01..12.31_avg_5yrs_eumap_epsg3035_v0.1.tif,1
clm_skin.temp_era5.copernicus_av_1km_0..0cm_04.01..04.30_avg_5yrs_eumap_epsg3035_v0.1.tif,1
clm_skin.temp_era5.copernicus_av_1km_0..0cm_04.01..04.30_mean_eumap_epsg3035_v0.1.tif,1
clm_skin.temp_era5.copernicus_av_1km_0..0cm_04.01..04.30_std_eumap_epsg3035_v0.1.tif,1
clm_skin.temp_era5.copernicus_av_1km_0..0cm_05.01..05.31_avg_5yrs_eumap_epsg3035_v0.1.tif,1
clm_skin.temp_era5.copernicus_av_1km_0..0cm_05.01..05.31_mean_eumap_epsg3035_v0.1.tif,1
clm_skin.temp_era5.copernicus_av_1km_0..0cm_05.01..05.31_std_eumap_epsg3035_v0.1.tif,1
clm_bioclim.var_chelsa.13_m_1km_s0..0cm_1979..2013_v1.0.tif,1
clm_prec_era5.copernicus_sum_1km_200..200cm_03.01..03.31_avg_5yrs_eumap_epsg3035_v0.1.tif,2
clm_prec_era5.copernicus_sum_1km_200..200cm_01.01..01.31_std_eumap_epsg3035_v0.1.tif,2
clm_skin.temp_era5.copernicus_mx_1km_0..0cm_02.01..02.28_avg_5yrs_eumap_epsg3035_v0.1.tif,2
clm_skin.temp_era5.copernicus_mn_1km_0..0cm_07.01..07.31_std_eumap_epsg3035_v0.1.tif,2
clm_prec_era5.copernicus_sum_1km_200..200cm_07.01..07.31_std_eumap_epsg3035_v0.1.tif,2
dtm_hillshade.multid_gedi.gdal_m_30m_0..0cm_2000..2018_eumap_epsg3035_v0.2.tif,2
clm_skin.temp_era5.copernicus_mn_1km_0..0cm_05.01..05.31_std_eumap_epsg3035_v0.1.tif,3
clm_skin.temp_era5.copernicus_mx_1km_0..0cm_12.01..12.31_avg_5yrs_eumap_epsg3035_v0.1.tif,3
clm_skin.temp_era5.copernicus_mx_1km_0..0cm_10.01..10.31_avg_5yrs_eumap_epsg3035_v0.1.tif,3
clm_prec_era5.copernicus_sum_1km_200..200cm_08.01..08.31_std_eumap_epsg3035_v0.1.tif,3
clm_skin.temp_era5.copernicus_mn_1km_0..0cm_08.01..08.31_std_eumap_epsg3035_v0.1.tif,3
clm_skin.temp_era5.copernicus_av_1km_0..0cm_06.01..06.30_mean_eumap_epsg3035_v0.1.tif,3
clm_prec_era5.copernicus_sum_1km_200..200cm_12.01..12.31_std_eumap_epsg3035_v0.1.tif,3
clm_skin.temp_era5.copernicus_mx_1km_0..0cm_01.01..01.31_mean_eumap_epsg3035_v0.1.tif,3
clm_skin.temp_era5.copernicus_av_1km_0..0cm_09.01..09.30_std_eumap_epsg3035_v0.1.tif,3
clm_skin.temp_era5.copernicus_mn_1km_0..0cm_01.01..01.31_mean_eumap_epsg3035_v0.1.tif,3
clm_skin.temp_era5.copernicus_mx_1km_0..0cm_08.01..08.31_std_eumap_epsg3035_v0.1.tif,4
clm_prec_era5.copernicus_sum_1km_200..200cm_06.01..06.30_std_eumap_epsg3035_v0.1.tif,4
clm_skin.temp_era5.copernicus_av_1km_0..0cm_11.01..11.30_std_eumap_epsg3035_v0.1.tif,4
clm_skin.temp_era5.copernicus_mn_1km_0..0cm_04.01..04.30_mean_eumap_epsg3035_v0.1.tif,4
clm_skin.temp_era5.copernicus_mn_1km_0..0cm_11.01..11.30_std_eumap_epsg3035_v0.1.tif,4
clm_skin.temp_era5.copernicus_mx_1km_0..0cm_03.01..03.31_std_eumap_epsg3035_v0.1.tif,4
clm_skin.temp_era5.copernicus_mx_1km_0..0cm_04.01..04.30_std_eumap_epsg3035_v0.1.tif,4
clm_skin.temp_era5.copernicus_mx_1km_0..0cm_07.01..07.31_std_eumap_epsg3035_v0.1.tif,4
clm_skin.temp_era5.copernicus_av_1km_0..0cm_06.01..06.30_std_eumap_epsg3035_v0.1.tif,4
hyd_log1p.upstream.area_merit.hydro_m_250m_b0..0cm_2017_v1.0.tif,4
dtm_easterness_gedi.grass7_m_30m_0..0cm_2000..2018_eumap_epsg3035_v0.2.tif,5
clm_prec_era5.copernicus_sum_1km_200..200cm_09.01..09.30_std_eumap_epsg3035_v0.1.tif,5
dtm_northness_gedi.grass7_m_30m_0..0cm_2000..2018_eumap_epsg3035_v0.2.tif,5
clm_skin.temp_era5.copernicus_av_1km_0..0cm_01.01..01.31_mean_eumap_epsg3035_v0.1.tif,5
dtm_surface.lithology_egdi.1m.clay_p_250m_2018_eumap_epsg3035_v1.0.tif,5
clm_prec_era5.copernicus_sum_1km_200..200cm_05.01..05.31_std_eumap_epsg3035_v0.1.tif,5
clm_skin.temp_era5.copernicus_av_1km_0..0cm_08.01..08.31_std_eumap_epsg3035_v0.1.tif,5
clm_skin.temp_era5.copernicus_mx_1km_0..0cm_12.01..12.31_std_eumap_epsg3035_v0.1.tif,5
clm_prec_era5.copernicus_sum_1km_200..200cm_09.01..09.30_sum_eumap_epsg3035_v0.1.tif,5
dtm_surface.lithology_egdi.1m.micaschist_p_250m_2018_eumap_epsg3035_v1.0.tif,5
dtm_surface.lithology_egdi.1m.diamicton_p_250m_2018_eumap_epsg3035_v1.0.tif,6
dtm_surface.lithology_egdi.1m.dolomite_p_250m_2018_eumap_epsg3035_v1.0.tif,6
dtm_surface.lithology_egdi.1m.phyllite_p_250m_2018_eumap_epsg3035_v1.0.tif,6
dtm_surface.lithology_egdi.1m.metasomaticrock_p_250m_2018_eumap_epsg3035_v1.0.tif,6
dtm_surface.lithology_egdi.1m.peat_p_250m_2018_eumap_epsg3035_v1.0.tif,6
dtm_surface.lithology_egdi.1m.sand_p_250m_2018_eumap_epsg3035_v1.0.tif,6
dtm_surface.lithology_egdi.1m.clasticsedimentaryrock_p_250m_2018_eumap_epsg3035_v1.0.tif,6
dtm_surface.lithology_egdi.1m.granitoid_p_250m_2018_eumap_epsg3035_v1.0.tif,6
dtm_surface.lithology_egdi.1m.clasticsediment_p_250m_2018_eumap_epsg3035_v1.0.tif,6
lcv_water.occurance_jrc.surfacewater_p_250m_b0..200cm_1984..2018_v1.1.tif,6
dtm_surface.lithology_egdi.1m.mudstone_p_250m_2018_eumap_epsg3035_v1.0.tif,7
dtm_surface.lithology_egdi.1m.marble_p_250m_2018_eumap_epsg3035_v1.0.tif,7
dtm_surface.lithology_egdi.1m.limestone_p_250m_2018_eumap_epsg3035_v1.0.tif,7
dtm_surface.lithology_egdi.1m.impuredolomite_p_250m_2018_eumap_epsg3035_v1.0.tif,7
dtm_surface.lithology_egdi.1m.impurecarbonatesedimentaryrock_p_250m_2018_eumap_epsg3035_v1.0.tif,7
dtm_surface.lithology_egdi.1m.paragneiss_p_250m_2018_eumap_epsg3035_v1.0.tif,7
dtm_surface.lithology_egdi.1m.granite_p_250m_2018_eumap_epsg3035_v1.0.tif,7
dtm_surface.lithology_egdi.1m.schist_p_250m_2018_eumap_epsg3035_v1.0.tif,7
dtm_surface.lithology_egdi.1m.sedimentaryrock_p_250m_2018_eumap_epsg3035_v1.0.tif,7
dtm_surface.lithology_egdi.1m.shale_p_250m_2018_eumap_epsg3035_v1.0.tif,7
dtm_surface.lithology_egdi.1m.organicrichsediment_p_250m_2018_eumap_epsg3035_v1.0.tif,8
dtm_surface.lithology_egdi.1m.orthogneiss_p_250m_2018_eumap_epsg3035_v1.0.tif,8
dtm_surface.lithology_egdi.1m.gravel_p_250m_2018_eumap_epsg3035_v1.0.tif,8
dtm_surface.lithology_egdi.1m.sandstone_p_250m_2018_eumap_epsg3035_v1.0.tif,8
dtm_surface.lithology_egdi.1m.carbonatesedimentaryrock_p_250m_2018_eumap_epsg3035_v1.0.tif,8
dtm_surface.lithology_egdi.1m.monzogranite_p_250m_2018_eumap_epsg3035_v1.0.tif,8
dtm_surface.lithology_egdi.1m.chalk_p_250m_2018_eumap_epsg3035_v1.0.tif,8
dtm_surface.lithology_egdi.1m.chloriteactinoliteepidotemetamorphicrock_p_250m_2018_eumap_epsg3035_v1.0.tif,8
dtm_surface.lithology_egdi.1m.amphibolite_p_250m_2018_eumap_epsg3035_v1.0.tif,8
dtm_surface.lithology_egdi.1m.wacke_p_250m_2018_eumap_epsg3035_v1.0.tif,8
dtm_surface.lithology_egdi.1m.tonalite_p_250m_2018_eumap_epsg3035_v1.0.tif,9
dtm_surface.lithology_egdi.1m.peridotite_p_250m_2018_eumap_epsg3035_v1.0.tif,9
dtm_surface.lithology_egdi.1m.gneiss_p_250m_2018_eumap_epsg3035_v1.0.tif,9
dtm_surface.lithology_egdi.1m.ultramaficigneousrock_p_250m_2018_eumap_epsg3035_v1.0.tif,9
dtm_surface.lithology_egdi.1m.serpentinite_p_250m_2018_eumap_epsg3035_v1.0.tif,9
dtm_surface.lithology_egdi.1m.andesite_p_250m_2018_eumap_epsg3035_v1.0.tif,9
dtm_surface.lithology_egdi.1m.tuffbrecciaagglomerateorpyroclasticbreccia_p_250m_2018_eumap_epsg3035_v1.0.tif,9
dtm_surface.lithology_egdi.1m.silt_p_250m_2018_eumap_epsg3035_v1.0.tif,9
dtm_surface.lithology_egdi.1m.metamorphicrock_p_250m_2018_eumap_epsg3035_v1.0.tif,9
dtm_surface.lithology_egdi.1m.clasticsedimentarymaterial_p_250m_2018_eumap_epsg3035_v1.0.tif,9
dtm_surface.lithology_egdi.1m.waste_p_250m_2018_eumap_epsg3035_v1.0.tif,10
dtm_surface.lithology_egdi.1m.nonclasticsiliceoussedimentaryrock_p_250m_2018_eumap_epsg3035_v1.0.tif,10
dtm_surface.lithology_egdi.1m.tephrite_p_250m_2018_eumap_epsg3035_v1.0.tif,10
dtm_surface.lithology_egdi.1m.gabbro_p_250m_2018_eumap_epsg3035_v1.0.tif,10
dtm_surface.lithology_egdi.1m.trachyte_p_250m_2018_eumap_epsg3035_v1.0.tif,10
dtm_surface.lithology_egdi.1m.foidsyenitoid_p_250m_2018_eumap_epsg3035_v1.0.tif,10
dtm_surface.lithology_egdi.1m.travertine_p_250m_2018_eumap_epsg3035_v1.0.tif,10
dtm_surface.lithology_egdi.1m.trachytoid_p_250m_2018_eumap_epsg3035_v1.0.tif,10
dtm_surface.lithology_egdi.1m.trachyticrock_p_250m_2018_eumap_epsg3035_v1.0.tif,10
dtm_surface.lithology_egdi.1m.tholeiiticbasalt_p_250m_2018_eumap_epsg3035_v1.0.tif,10
dtm_surface.lithology_egdi.1m.syenogranite_p_250m_2018_eumap_epsg3035_v1.0.tif,11
dtm_surface.lithology_egdi.1m.syeniticrock_p_250m_2018_eumap_epsg3035_v1.0.tif,11
dtm_surface.lithology_egdi.1m.syenite_p_250m_2018_eumap_epsg3035_v1.0.tif,11
dtm_surface.lithology_egdi.1m.silicatemud_p_250m_2018_eumap_epsg3035_v1.0.tif,11
dtm_surface.lithology_egdi.1m.conglomerate_p_250m_2018_eumap_epsg3035_v1.0.tif,11
dtm_surface.lithology_egdi.1m.porphyry_p_250m_2018_eumap_epsg3035_v1.0.tif,11
dtm_surface.lithology_egdi.1m.igneousmaterial_p_250m_2018_eumap_epsg3035_v1.0.tif,11
dtm_surface.lithology_egdi.1m.pyroxenite_p_250m_2018_eumap_epsg3035_v1.0.tif,11
dtm_surface.lithology_egdi.1m.impurelimestone_p_250m_2018_eumap_epsg3035_v1.0.tif,11
dtm_surface.lithology_egdi.1m.quartzite_p_250m_2018_eumap_epsg3035_v1.0.tif,11
dtm_surface.lithology_egdi.1m.spilite_p_250m_2018_eumap_epsg3035_v1.0.tif,12
dtm_surface.lithology_egdi.1m.pyroclasticrock_p_250m_2018_eumap_epsg3035_v1.0.tif,12
dtm_surface.lithology_egdi.1m.carbonatite_p_250m_2018_eumap_epsg3035_v1.0.tif,12
dtm_surface.lithology_egdi.1m.carbonateooze_p_250m_2018_eumap_epsg3035_v1.0.tif,12
dtm_surface.lithology_egdi.1m.brecciagougeseries_p_250m_2018_eumap_epsg3035_v1.0.tif,12
dtm_surface.lithology_egdi.1m.biogenicsilicasedimentaryrock_p_250m_2018_eumap_epsg3035_v1.0.tif,12
dtm_surface.lithology_egdi.1m.basanite_p_250m_2018_eumap_epsg3035_v1.0.tif,12
dtm_surface.lithology_egdi.1m.basalt_p_250m_2018_eumap_epsg3035_v1.0.tif,12
dtm_surface.lithology_egdi.1m.gypsumoranhydrite_p_250m_2018_eumap_epsg3035_v1.0.tif,12
dtm_surface.lithology_egdi.1m.hornfels_p_250m_2018_eumap_epsg3035_v1.0.tif,12
dtm_surface.lithology_egdi.1m.sediment_p_250m_2018_eumap_epsg3035_v1.0.tif,13
dtm_surface.lithology_egdi.1m.clasticsandstone_p_250m_2018_eumap_epsg3035_v1.0.tif,13
dtm_surface.lithology_egdi.1m.carbonatemud_p_250m_2018_eumap_epsg3035_v1.0.tif,13
dtm_surface.lithology_egdi.1m.sedimentarymaterial_p_250m_2018_eumap_epsg3035_v1.0.tif,13
dtm_surface.lithology_egdi.1m.quartzdiorite_p_250m_2018_eumap_epsg3035_v1.0.tif,13
dtm_surface.lithology_egdi.1m.igneousrock_p_250m_2018_eumap_epsg3035_v1.0.tif,13
dtm_surface.lithology_egdi.1m.breccia_p_250m_2018_eumap_epsg3035_v1.0.tif,13
dtm_surface.lithology_egdi.1m.komatiiticrock_p_250m_2018_eumap_epsg3035_v1.0.tif,13
dtm_surface.lithology_egdi.1m.impurecarbonatesediment_p_250m_2018_eumap_epsg3035_v1.0.tif,13
dtm_surface.lithology_egdi.1m.impactgeneratedmaterial_p_250m_2018_eumap_epsg3035_v1.0.tif,13
dtm_surface.lithology_egdi.1m.mud_p_250m_2018_eumap_epsg3035_v1.0.tif,14
dtm_surface.lithology_egdi.1m.monzonite_p_250m_2018_eumap_epsg3035_v1.0.tif,14
dtm_surface.lithology_egdi.1m.eclogite_p_250m_2018_eumap_epsg3035_v1.0.tif,14
dtm_surface.lithology_egdi.1m.ashtufflapillistoneandlapillituff_p_250m_2018_eumap_epsg3035_v1.0.tif,14
dtm_surface.lithology_egdi.1m.rhyolitoid_p_250m_2018_eumap_epsg3035_v1.0.tif,14
dtm_surface.lithology_egdi.1m.ashbrecciabomborblocktephra_p_250m_2018_eumap_epsg3035_v1.0.tif,14
dtm_surface.lithology_egdi.1m.myloniticrock_p_250m_2018_eumap_epsg3035_v1.0.tif,14
dtm_surface.lithology_egdi.1m.migmatite_p_250m_2018_eumap_epsg3035_v1.0.tif,14
dtm_surface.lithology_egdi.1m.residualmaterial_p_250m_2018_eumap_epsg3035_v1.0.tif,14
dtm_surface.lithology_egdi.1m.anorthositicrock_p_250m_2018_eumap_epsg3035_v1.0.tif,14
dtm_surface.lithology_egdi.1m.claystone_p_250m_2018_eumap_epsg3035_v1.0.tif,15
dtm_surface.lithology_egdi.1m.skarn_p_250m_2018_eumap_epsg3035_v1.0.tif,15
dtm_surface.lithology_egdi.1m.exoticcompositionigneousrock_p_250m_2018_eumap_epsg3035_v1.0.tif,15
dtm_surface.lithology_egdi.1m.finegrainedigneousrock_p_250m_2018_eumap_epsg3035_v1.0.tif,15
dtm_surface.lithology_egdi.1m.alkaliolivinebasalt_p_250m_2018_eumap_epsg3035_v1.0.tif,15
dtm_surface.lithology_egdi.1m.slate_p_250m_2018_eumap_epsg3035_v1.0.tif,15
dtm_surface.lithology_egdi.1m.phyllonite_p_250m_2018_eumap_epsg3035_v1.0.tif,15
dtm_surface.lithology_egdi.1m.siltstone_p_250m_2018_eumap_epsg3035_v1.0.tif,15
dtm_surface.lithology_egdi.1m.phonolite_p_250m_2018_eumap_epsg3035_v1.0.tif,15
dtm_surface.lithology_egdi.1m.rhyolite_p_250m_2018_eumap_epsg3035_v1.0.tif,15
dtm_surface.lithology_egdi.1m.arenite_p_250m_2018_eumap_epsg3035_v1.0.tif,16
dtm_surface.lithology_egdi.1m.granulite_p_250m_2018_eumap_epsg3035_v1.0.tif,16
dtm_surface.lithology_egdi.1m.foliatedmetamorphicrock_p_250m_2018_eumap_epsg3035_v1.0.tif,16
dtm_surface.lithology_egdi.1m.foidbearingsyenite_p_250m_2018_eumap_epsg3035_v1.0.tif,16
dtm_surface.lithology_egdi.1m.granodiorite_p_250m_2018_eumap_epsg3035_v1.0.tif,16
dtm_surface.lithology_egdi.1m.glaucophanelawsoniteepidotemetamorphicrock_p_250m_2018_eumap_epsg3035_v1.0.tif,16
dtm_surface.lithology_egdi.1m.gabbroid_p_250m_2018_eumap_epsg3035_v1.0.tif,16
dtm_surface.lithology_egdi.1m.gabbroicrock_p_250m_2018_eumap_epsg3035_v1.0.tif,16
dtm_surface.lithology_egdi.1m.fragmentaligneousmaterial_p_250m_2018_eumap_epsg3035_v1.0.tif,16
dtm_surface.lithology_egdi.1m.rock_p_250m_2018_eumap_epsg3035_v1.0.tif,16
dtm_surface.lithology_egdi.1m.dolomiticormagnesiansedimentaryrock_p_250m_2018_eumap_epsg3035_v1.0.tif,17
dtm_surface.lithology_egdi.1m.organicrichsedimentarymaterial_p_250m_2018_eumap_epsg3035_v1.0.tif,17
dtm_surface.lithology_egdi.1m.doleriticrock_p_250m_2018_eumap_epsg3035_v1.0.tif,17
dtm_surface.lithology_egdi.1m.dioriticrock_p_250m_2018_eumap_epsg3035_v1.0.tif,17
dtm_surface.lithology_egdi.1m.diamictite_p_250m_2018_eumap_epsg3035_v1.0.tif,17
dtm_surface.lithology_egdi.1m.dacite_p_250m_2018_eumap_epsg3035_v1.0.tif,17
dtm_surface.lithology_egdi.1m.organicbearingmudstone_p_250m_2018_eumap_epsg3035_v1.0.tif,17
dtm_surface.lithology_egdi.1m.phaneriticigneousrock_p_250m_2018_eumap_epsg3035_v1.0.tif,17
dtm_surface.lithology_egdi.1m.pyroclasticmaterial_p_250m_2018_eumap_epsg3035_v1.0.tif,17
dtm_surface.lithology_egdi.1m.diorite_p_250m_2018_eumap_epsg3035_v1.0.tif,17
